{
    "active": 1,
    "comments": {},
    "requirements": {
        "de6cce03cbb647979d45e25317e7b306": {
            "21a4-ebb0-67fb-e68d-295b-2ac6": {
                "createdById": "475d20b8-b8bf-4d8d-99ac-9094a02ca77d",
                "createdBy": "Saju K V",
                "createdByEmail": "saju.veetil@rentokil-initial.com",
                "label": "1",
                "createdOn": "1460718621259",
                "lastModifiedTime": 1460718621492,
                "active": 0,
                "widgetId": "de6cce03cbb647979d45e25317e7b306",
                "formId": "c8bc0df090704eb28cb189ca6d61b5f4",
                "channel": "mobile",
                "requirementId": "21a4-ebb0-67fb-e68d-295b-2ac6",
                "body": "<p>&lt;p&gt;&lt;b&gt;Rentokil Pest Control&lt;/b&gt; is a trading division of Rentokil Initial UK Limited, a company registered in England and Wales with registration number 301044 and whose registered office is at Riverbank, Meadows Business Park, Blackwater, Camberley, Surrey GU17 9AB.&lt;/p&gt;<br></p>"
            }
        }
    },
    "requirementSeqId": 1
}