{
    "@class": "com.kony.gen.viz.model.component.KVizImage2",
    "DNDConfig": null,
    "__parentReadjusting__": true,
    "_base64_": null,
    "_height_": {
        "type": "string",
        "value": "36dp"
    },
    "_left_": {
        "type": "string",
        "value": "3%"
    },
    "_margin_": [
        0,
        0,
        0,
        0
    ],
    "_padding_": [
        0,
        0,
        0,
        0
    ],
    "_skin_": "s6f308a6bb1f44f2b6e4a34c6cc740f3",
    "_src_": "imagedrag.png",
    "_width_": {
        "type": "string",
        "value": "36dp"
    },
    "canUpdateUI": true,
    "centery": {
        "type": "string",
        "value": "50%"
    },
    "containerId": true,
    "containerweight": 100,
    "context": {
        "channel": "mobile",
        "platform": "android",
        "templateType": "segments",
        "topLevelBox": null
    },
    "id": "imgSelection",
    "imagescalemode": 1,
    "info": null,
    "isvisible": true,
    "kuid": "b9d9bd3c721547b3b631afe39ce9b3c1",
    "name": "kony.ui.Image2",
    "parent": "flxRowSelectionContainer02c4cb792302d43",
    "pf": "flxRowSelectionContainer02c4cb792302d43",
    "srcType": 1,
    "wType": "Image",
    "widgetalignment": 5
}