{
    "DNDConfig": null,
    "_height_": {
        "type": "string",
        "value": "40dp"
    },
    "_margin_": [
        0,
        0,
        0,
        0
    ],
    "_orientation_": 6,
    "_padding_": [
        0,
        0,
        0,
        0
    ],
    "_percent_": true,
    "_skin_": "s56750f6e55a4a729ad4abc162bbfdb3",
    "allboxes": [],
    "autogrowmode": 0,
    "canUpdateUI": true,
    "children": [
        "imgSelection",
        "lblItemName"
    ],
    "clipbounds": true,
    "containerId": true,
    "containerweight": 100,
    "enablescrolling": true,
    "id": "flxRowSelectionContainer",
    "info": null,
    "isTemplate": true,
    "isvisible": true,
    "kuid": "47bb73b2a97a4b5b80b912bb8d18b238",
    "layouttype": 2,
    "name": "kony.ui.FlexContainer",
    "parent": "tplRowSegSelectionList",
    "pf": "tplRowSegSelectionList",
    "snapgridsize": 10,
    "snaptogrid": true,
    "wType": "FlexContainer",
    "widgetalignment": 1
}