{
  "android": {
    "font_color": "c23636ff",
    "font_size": 110,
    "isForked": true,
    "text_shadow": {
      "br": 0,
      "color": "666466ff",
      "nm": 0,
      "x": 0,
      "y": 0
    }
  },
  "background_color": "00000000",
  "bg_type": "one",
  "border_color": "424242ff",
  "border_style": "plain",
  "border_type": 0,
  "border_width": 0,
  "desktopweb": {
    "font_color": "c23636ff",
    "font_size": 110,
    "isForked": true,
    "text_shadow": {
      "br": 0,
      "color": "666466ff",
      "nm": 0,
      "x": 0,
      "y": 0
    }
  },
  "fontSizeInPx": false,
  "font_color": "ffffffff",
  "font_name": "Helvetica",
  "font_size": 130,
  "font_style": "normal",
  "font_weight": "bold",
  "ipad": {
    "font_color": "c23636ff",
    "font_size": 110,
    "isForked": true,
    "text_shadow": {
      "br": 0,
      "color": "666466ff",
      "nm": 0,
      "x": 0,
      "y": 0
    }
  },
  "iphone": {
    "font_color": "c23636ff",
    "font_size": 110,
    "isForked": true,
    "text_shadow": {
      "br": 0,
      "color": "666466ff",
      "nm": 0,
      "x": 0,
      "y": 0
    }
  },
  "isDefaultSkin": false,
  "kiosk": {
    "font_color": "c23636ff",
    "font_size": 110,
    "isForked": true
  },
  "kuid": "s2f8895f8e5f419a9fcd8c3715f2179b",
  "spaan": {
    "font_color": "c23636ff",
    "font_size": 110,
    "isForked": true,
    "text_shadow": {
      "br": 0,
      "color": "666466ff",
      "nm": 0,
      "x": 0,
      "y": 0
    }
  },
  "spaandroidtablet": {
    "font_color": "c23636ff",
    "font_size": 110,
    "isForked": true,
    "text_shadow": {
      "br": 0,
      "color": "666466ff",
      "nm": 0,
      "x": 0,
      "y": 0
    }
  },
  "spabb": {
    "font_color": "c23636ff",
    "font_size": 110,
    "isForked": true,
    "text_shadow": {
      "br": 0,
      "color": "666466ff",
      "nm": 0,
      "x": 0,
      "y": 0
    }
  },
  "spaip": {
    "font_color": "c23636ff",
    "font_size": 110,
    "isForked": true,
    "text_shadow": {
      "br": 0,
      "color": "666466ff",
      "nm": 0,
      "x": 0,
      "y": 0
    }
  },
  "spaipad": {
    "font_color": "c23636ff",
    "font_size": 110,
    "isForked": true,
    "text_shadow": {
      "br": 0,
      "color": "666466ff",
      "nm": 0,
      "x": 0,
      "y": 0
    }
  },
  "spawindowstablet": {
    "font_color": "c23636ff",
    "font_size": 110,
    "isForked": true,
    "text_shadow": {
      "br": 0,
      "color": "666466ff",
      "nm": 0,
      "x": 0,
      "y": 0
    }
  },
  "spawinphone8": {
    "font_color": "c23636ff",
    "font_size": 110,
    "isForked": true,
    "text_shadow": {
      "br": 0,
      "color": "666466ff",
      "nm": 0,
      "x": 0,
      "y": 0
    }
  },
  "tabrcandroid": {
    "font_color": "c23636ff",
    "font_size": 110,
    "isForked": true,
    "text_shadow": {
      "br": 0,
      "color": "666466ff",
      "nm": 0,
      "x": 0,
      "y": 0
    }
  },
  "wType": "Label",
  "watchos": {
    "font_color": "c23636ff",
    "font_size": 110,
    "isForked": true
  },
  "windows8": {
    "font_color": "c23636ff",
    "font_size": 110,
    "isForked": true
  },
  "winphone8": {
    "font_color": "c23636ff",
    "font_size": 110,
    "isForked": true
  }
}