{
  "background_color": "00000000",
  "bg_type": "one",
  "border_color": "000000ff",
  "border_style": "plain",
  "border_type": 0,
  "border_width": 0,
  "isDefaultSkin": true,
  "kuid": "s5ac69a8ffc84f5ea324ed0f2b7e6ca7",
  "wType": "Segment"
}