{
  "background_color": "00000000",
  "bg_type": "one",
  "border_color": "000000ff",
  "border_style": "plain",
  "border_type": 0,
  "border_width": 0,
  "isDefaultSkin": false,
  "kuid": "sae3f4e83f1c4959b0ecb790da2bed4d",
  "wType": "FlexContainer"
}