{
  "background_color": "00000000",
  "bg_type": "one",
  "border_color": "000000ff",
  "border_style": "plain",
  "border_type": 0,
  "border_width": 0,
  "isDefaultSkin": true,
  "kuid": "s50e3450367a466db3a675ead394d9fd",
  "wType": "VBox"
}