{
    "AS_Button_1098877f28b84d1e9d5a563dd6573082": {
        "id": "AS_Button_1098877f28b84d1e9d5a563dd6573082",
        "type": "ACTION_SEQUENCE",
        "name": "ActionLoginPopupOk",
        "params": [{
            "datatype": "collection",
            "name": "eventobject"
        }],
        "contextObj": {
            "name": "Login",
            "type": "forms",
            "platform": "",
            "KUID": "1497982e9c954c9f9afbcc1b120345f3"
        },
        "language": "js",
        "actions": [{
            "id": "INVOKE_FUNCTION___cd939402e6c44ed29fc487a73cd1cfc9",
            "type": "INVOKE_FUNCTION",
            "sequenceKUID": "onClickOkFromLoginScreenPopup",
            "display": "onClickOkFromLoginScreenPopup",
            "inputparams": [],
            "parentId": null,
            "callbackType": null,
            "source": "module"
        }]
    }
}