{
    "AS_FlexContainer_aa40600be4804a44ba413387ba1083ed": {
        "id": "AS_FlexContainer_aa40600be4804a44ba413387ba1083ed",
        "type": "ACTION_SEQUENCE",
        "name": "ActionOnTouchStartSettingsContainer",
        "params": [{
            "datatype": "collection",
            "name": "eventobject"
        }, {
            "datatype": "string",
            "name": "x"
        }, {
            "datatype": "string",
            "name": "y"
        }],
        "contextObj": {
            "name": "Home",
            "type": "forms",
            "platform": "",
            "KUID": "f2a1d30b0ab54c9fb9b5b2a5e66cc500"
        },
        "language": "js",
        "actions": [{
            "id": "INVOKE_FUNCTION___926d5bcd11fb4149adf204dd0a5f7b11",
            "type": "INVOKE_FUNCTION",
            "sequenceKUID": "handleTouchStartOnSettings",
            "display": "handleTouchStartOnSettings",
            "inputparams": [{
                "name": "widgetRef",
                "value": " eventobject"
            }, {
                "name": "x",
                "value": " x"
            }, {
                "name": "y",
                "value": " y"
            }],
            "parentId": null,
            "callbackType": null,
            "source": "module"
        }]
    }
}