{
    "AS_AppEvents_d7c985570eec418990647017250e5a1a": {
        "id": "AS_AppEvents_d7c985570eec418990647017250e5a1a",
        "type": "ACTION_SEQUENCE",
        "name": "ActionPreAppInit",
        "params": [{
            "datatype": "collection",
            "name": "eventobject"
        }],
        "language": "js",
        "actions": [{
            "id": "INVOKE_FUNCTION___c7c6d523ea64483d899274b2378a5f21",
            "type": "INVOKE_FUNCTION",
            "sequenceKUID": "onPreAppInit",
            "display": "onPreAppInit",
            "inputparams": [],
            "parentId": null,
            "callbackType": null,
            "source": "module"
        }]
    }
}