{
    "AS_FlexContainer_87162cfa19c140819ed551ae417095cd": {
        "id": "AS_FlexContainer_87162cfa19c140819ed551ae417095cd",
        "type": "ACTION_SEQUENCE",
        "name": "ActionOnTouchMoveSettingsContainer",
        "params": [{
            "datatype": "collection",
            "name": "eventobject"
        }, {
            "datatype": "string",
            "name": "x"
        }, {
            "datatype": "string",
            "name": "y"
        }],
        "contextObj": {
            "name": "Home",
            "type": "forms",
            "platform": "",
            "KUID": "f2a1d30b0ab54c9fb9b5b2a5e66cc500"
        },
        "language": "js",
        "actions": [{
            "id": "INVOKE_FUNCTION___65cdc0c773e44700a585023f26961225",
            "type": "INVOKE_FUNCTION",
            "sequenceKUID": "handleTouchMoveOnSettings",
            "display": "handleTouchMoveOnSettings",
            "inputparams": [{
                "name": "widgetRef",
                "value": " eventobject"
            }, {
                "name": "x",
                "value": " x"
            }, {
                "name": "y",
                "value": " y"
            }],
            "parentId": null,
            "callbackType": null,
            "source": "module"
        }]
    }
}