{
    "AS_FlexContainer_a10cb0d9a9ee408598c58c3f7ab32876": {
        "id": "AS_FlexContainer_a10cb0d9a9ee408598c58c3f7ab32876",
        "type": "ACTION_SEQUENCE",
        "name": "ActionEndDay",
        "params": [{
            "datatype": "collection",
            "name": "eventobject"
        }],
        "contextObj": {
            "name": "Home",
            "type": "forms",
            "platform": "",
            "KUID": "f2a1d30b0ab54c9fb9b5b2a5e66cc500"
        },
        "language": "js",
        "actions": [{
            "id": "INVOKE_FUNCTION___2fbbc50fcb55467995a8e2280d3303b3",
            "type": "INVOKE_FUNCTION",
            "sequenceKUID": "onClickEndDay",
            "display": "onClickEndDay",
            "inputparams": [],
            "parentId": null,
            "callbackType": null,
            "source": "module"
        }]
    }
}