{
    "AS_FlexContainer_7f7c0832f9684279a4dec7bac00ef0bf": {
        "id": "AS_FlexContainer_7f7c0832f9684279a4dec7bac00ef0bf",
        "type": "ACTION_SEQUENCE",
        "name": "ActionStartDay",
        "params": [{
            "datatype": "collection",
            "name": "eventobject"
        }],
        "contextObj": {
            "name": "Home",
            "type": "forms",
            "platform": "",
            "KUID": "f2a1d30b0ab54c9fb9b5b2a5e66cc500"
        },
        "language": "js",
        "actions": [{
            "id": "INVOKE_FUNCTION___2cb6d7faafa74f9287cde84eacc3c59c",
            "type": "INVOKE_FUNCTION",
            "sequenceKUID": "onClickStartDay",
            "display": "onClickStartDay",
            "inputparams": [],
            "parentId": null,
            "callbackType": null,
            "source": "module"
        }]
    }
}