{
    "AS_Form_e7d9850118d0451aacd477132d6229be": {
        "id": "AS_Form_e7d9850118d0451aacd477132d6229be",
        "type": "ACTION_SEQUENCE",
        "name": "ActionLoginPostShow",
        "params": [{
            "datatype": "collection",
            "name": "eventobject"
        }],
        "contextObj": {
            "name": "Login",
            "type": "forms",
            "platform": "",
            "KUID": "1497982e9c954c9f9afbcc1b120345f3"
        },
        "language": "js",
        "actions": [{
            "id": "INVOKE_FUNCTION___2a491e929e9e43ed9a44db47fb4a8ae9",
            "type": "INVOKE_FUNCTION",
            "sequenceKUID": "onPostShowLoginScreen",
            "display": "onPostShowLoginScreen",
            "inputparams": [],
            "parentId": null,
            "callbackType": null,
            "source": "module"
        }]
    }
}