{
    "AS_FlexContainer_edaef238f7014a17822cede00af02de2": {
        "id": "AS_FlexContainer_edaef238f7014a17822cede00af02de2",
        "type": "ACTION_SEQUENCE",
        "params": [{
            "datatype": "collection",
            "name": "eventobject"
        }],
        "contextObj": {
            "name": "Home",
            "type": "forms",
            "platform": "",
            "KUID": "f2a1d30b0ab54c9fb9b5b2a5e66cc500"
        },
        "language": "js",
        "actions": [{
            "id": "INVOKE_FUNCTION___eaa9d6fa96b44c9593472c539aa07f2a",
            "type": "INVOKE_FUNCTION",
            "sequenceKUID": "doNothing",
            "display": "doNothing",
            "inputparams": [],
            "parentId": null,
            "callbackType": null,
            "disabled": null,
            "source": "module"
        }]
    }
}