{
    "AS_FlexContainer_a0249014d2864fc7ba244e30b7c32433": {
        "id": "AS_FlexContainer_a0249014d2864fc7ba244e30b7c32433",
        "type": "ACTION_SEQUENCE",
        "params": [{
            "datatype": "collection",
            "name": "eventobject"
        }],
        "language": "js",
        "actions": [{
            "id": "INVOKE_FUNCTION__ide_onClick_gd77fba742c64da1b29fa89016cea01b",
            "type": "INVOKE_FUNCTION",
            "sequenceKUID": "onClickEndDay",
            "display": "onClickEndDay",
            "inputparams": [],
            "callbackType": null,
            "source": "module"
        }]
    }
}