{
    "@class": "com.kony.gen.viz.model.component.KVizButton",
    "DNDConfig": null,
    "__parentReadjusting__": false,
    "_height_": {
        "type": "string",
        "value": "40dp"
    },
    "_left_": {
        "type": "string",
        "value": "10dp"
    },
    "_margin_": [
        6,
        6,
        6,
        6
    ],
    "_padding_": [
        0,
        0,
        0,
        0
    ],
    "_skin_": "s2334217b02845269d365efdcf83120d",
    "_text_": "Cancel",
    "_width_": {
        "type": "string",
        "value": "45%"
    },
    "canUpdateUI": true,
    "centery": {
        "type": "string",
        "value": "50%"
    },
    "containerweight": 100,
    "contentalignment": 5,
    "displaytext": true,
    "focusskin": "s2334217b02845269d365efdcf83120d",
    "id": "btnCancel",
    "ide_onClick": "AS_Button_80b6d6450b124006b9f87e5b41517e62",
    "info": null,
    "isvisible": true,
    "kuid": "c9e241670c6e475cae034680f2adb91f",
    "name": "kony.ui.Button",
    "parent": "flxPopupButtonContainer",
    "pf": "Login",
    "wType": "Button",
    "zindex": 1
}