{
    "@class": "com.kony.gen.viz.model.component.KVizButton",
    "DNDConfig": null,
    "__markedForDelete__": true,
    "__parentReadjusting__": false,
    "_height_": {
        "type": "string",
        "value": "40dp"
    },
    "_margin_": [
        6,
        6,
        6,
        6
    ],
    "_padding_": [
        0,
        0,
        0,
        0
    ],
    "_right_": {
        "type": "string",
        "value": "10dp"
    },
    "_skin_": "sf05191ebca845148f8bee78632cf0ed",
    "_text_": "Ok",
    "_width_": {
        "type": "string",
        "value": "140dp"
    },
    "canUpdateUI": true,
    "centery": {
        "type": "string",
        "value": "50%"
    },
    "containerweight": 100,
    "contentalignment": 5,
    "displaytext": true,
    "focusskin": "sf05191ebca845148f8bee78632cf0ed",
    "id": "btnRight",
    "info": null,
    "isvisible": true,
    "kuid": "f276943c428945fbb369ad97ed28e207",
    "name": "kony.ui.Button",
    "parent": "flxMessageButtonsContainer",
    "pf": "Login",
    "texti18n": "common.label.ok",
    "wType": "Button",
    "zindex": 1
}