{
    "@class": "com.kony.gen.viz.model.component.KVizListBox",
    "DNDConfig": null,
    "__parentReadjusting__": false,
    "_bottom_": {
        "type": "string",
        "value": "10dp"
    },
    "_height_": {
        "type": "string",
        "value": "40dp"
    },
    "_left_": {
        "type": "string",
        "value": "10dp"
    },
    "_margin_": [
        0,
        0,
        0,
        0
    ],
    "_padding_": [
        1,
        0,
        1,
        0
    ],
    "_placeholder_": "Select",
    "_right_": {
        "type": "string",
        "value": "10dp"
    },
    "_skin_": "sf0a0d1c3ed24600919e1ea45f63b636",
    "_top_": {
        "type": "string",
        "value": "10dp"
    },
    "android": {
        "psp": {
            "applySkinsToPopup": true,
            "placeholderSkin": "sdfdce6e3dea429ebd1c1ac9aa1f42fa"
        }
    },
    "applyskinstopopup": true,
    "canUpdateUI": true,
    "centery": {
        "type": "string",
        "value": "50%"
    },
    "containerweight": 100,
    "contentalignment": 4,
    "context": {
        "channel": "mobile",
        "formID": "Login",
        "platform": "android",
        "templateType": "forms",
        "topLevelBox": null
    },
    "dropdownimage": "arrow_dropdown_small.png",
    "groupcells": false,
    "id": "lbxItemList",
    "info": null,
    "isvisible": true,
    "kuid": "e7a90821f2bf4cb697466fe540ef9481",
    "masterdata": [
        [
            "lb1",
            "Listbox One"
        ],
        [
            "lb2",
            "Listbox Two"
        ],
        [
            "lb3",
            "Listbox Three"
        ]
    ],
    "name": "kony.ui.ListBox",
    "paddinginpixel": false,
    "parent": "flxPopupContentContainer",
    "pf": "Login",
    "selectedkey": null,
    "selectedkeys": null,
    "selectedkeyvalue": null,
    "selectedkeyvalues": null,
    "size": 18,
    "viewconfig": {
        "toggleViewConfig": {
            "viewStyle": 0
        }
    },
    "viewtype": 0,
    "wType": "ListBox",
    "zindex": 1
}