{
    "@class": "com.kony.gen.viz.model.component.KVizButton",
    "DNDConfig": null,
    "__parentReadjusting__": false,
    "_height_": {
        "type": "string",
        "value": "42dp"
    },
    "_left_": {
        "type": "string",
        "value": "2%"
    },
    "_margin_": [
        6,
        6,
        6,
        6
    ],
    "_padding_": [
        0,
        0,
        0,
        0
    ],
    "_skin_": "sbf2392ebd994388996257a8c2ab95b1",
    "_text_": "Button",
    "_width_": {
        "type": "string",
        "value": "51dp"
    },
    "canUpdateUI": true,
    "centery": {
        "type": "string",
        "value": "50%"
    },
    "containerweight": 100,
    "contentalignment": 5,
    "disabledSkins": {},
    "displaytext": false,
    "focusskin": "sbf2392ebd994388996257a8c2ab95b1",
    "id": "btnMenuOpen",
    "ide_onClick": "AS_Button_7cbd927421e2489a96d6f2dfbffb1397",
    "info": null,
    "isvisible": true,
    "kuid": "0a1a90caa63241fdbe542f5bfa64db72",
    "name": "kony.ui.Button",
    "parent": "flxHeaderContainer",
    "pf": "Home",
    "wType": "Button",
    "zindex": 1
}